<svg viewBox="0 0 16 16" xmlns="http://www.w3.org/2000/svg">
<path d="M9.13247 8.11241L9.13243 8.11246L9.13541 8.11461L11.2091 9.60859C11.3669 9.73255 11.4002 9.98151 11.2795 10.1367L11.2779 10.1388L10.7208 10.8964C10.5966 11.055 10.3668 11.0891 10.2106 10.9863L7.37968 8.91323C7.29245 8.84505 7.20073 8.73412 7.13082 8.60725C7.0603 8.47926 7.01771 8.34552 7.01771 8.23431V3.70432C7.01771 3.52312 7.1866 3.35802 7.40865 3.35802H8.34589C8.53612 3.35802 8.69219 3.51408 8.69219 3.70432V7.27476C8.69219 7.43133 8.75003 7.59884 8.83013 7.74422C8.91055 7.89017 9.01919 8.0243 9.13247 8.11241ZM7.98884 15.9C3.62566 15.9 0.1 12.3743 0.1 8.01116C0.1 3.64761 3.62602 0.1 7.98884 0.1C12.352 0.1 15.9 3.64798 15.9 8.01116C15.9 12.374 12.3524 15.9 7.98884 15.9ZM7.98884 1.88605C4.63 1.88605 1.90837 4.65425 1.90837 8.01116C1.90837 11.369 4.63096 14.0916 7.98884 14.0916C11.3458 14.0916 14.1139 11.37 14.1139 8.01116C14.1139 4.65328 11.3467 1.88605 7.98884 1.88605Z"/>
</svg>
