<svg width="13" height="19" viewBox="0 0 13 19" fill="none" xmlns="http://www.w3.org/2000/svg">
<rect width="3" height="19" rx="1.5" fill="white"/>
<rect x="10" width="3" height="19" rx="1.5" fill="white"/>
</svg>
