<svg width="52" height="49" viewBox="0 0 52 49" fill="none" xmlns="http://www.w3.org/2000/svg">
<path d="M24.2311 1.35268C24.9815 -0.0696136 27.0185 -0.0696145 27.7689 1.35268L34.4049 13.9302C34.6943 14.4787 35.2217 14.862 35.8328 14.9677L49.8454 17.3922C51.43 17.6664 52.0595 19.6037 50.9387 20.7569L41.0273 30.9548C40.5951 31.3995 40.3936 32.0195 40.4819 32.6334L42.5062 46.7094C42.7351 48.3011 41.0872 49.4984 39.6441 48.7889L26.8825 42.5139C26.326 42.2403 25.674 42.2403 25.1175 42.5139L12.3559 48.7889C10.9129 49.4984 9.26491 48.3011 9.49382 46.7094L11.5181 32.6334C11.6064 32.0195 11.4049 31.3995 10.9727 30.9548L1.06133 20.7569C-0.0594618 19.6037 0.569995 17.6664 2.15457 17.3922L16.1672 14.9677C16.7783 14.862 17.3057 14.4787 17.5951 13.9302L24.2311 1.35268Z" fill="url(#paint0_linear)"/>
<defs>
<linearGradient id="paint0_linear" x1="26" y1="-2" x2="26" y2="56" gradientUnits="userSpaceOnUse">
<stop stop-color="#9676F5"/>
<stop offset="1" stop-color="#6864ED"/>
</linearGradient>
</defs>
</svg>
